<?xml version="1.0" encoding="UTF-8"?>
<session version="1.0">
<refactoring accessors="true" comment="Delete element from project &apos;personEngine&apos;&#x0A;- Original project: &apos;personEngine&apos;&#x0A;- Original element: &apos;personEngine/src/main/java/challenge.juanpabloochoa.personEngine.model.challenge.juanpabloochoa.personEngine.model&apos;" description="Delete element" element1="/src\/main\/java=/optional=/true=/=/maven.pomderived=/true=/&lt;challenge.juanpabloochoa.personEngine.model.challenge.juanpabloochoa.personEngine.model" element2="/src\/main\/java=/optional=/true=/=/maven.pomderived=/true=/&lt;challenge.juanpabloochoa.personEngine.model.challenge.juanpabloochoa.personEngine" element3="/src\/main\/java=/optional=/true=/=/maven.pomderived=/true=/&lt;challenge.juanpabloochoa.personEngine.model.challenge.juanpabloochoa" element4="/src\/main\/java=/optional=/true=/=/maven.pomderived=/true=/&lt;challenge.juanpabloochoa.personEngine.model.challenge" elements="4" flags="589830" id="org.eclipse.jdt.ui.delete" resources="0" stamp="1684186530350" subPackages="false" version="1.0"/>
</session>